…
## Question One

#### Real GDP

Quickly browse website of [World Development
Indicators](https://data.worldbank.org/indicator/NY.GDP.MKTP.KD) to get
all keys needed for the WDI package.

let’s check out real GDP.

    realgdp<-as_tibble(WDI(indicator = 'NY.GDP.MKTP.KD',country = c('IDN','AUS')))
    realgdp

    ## # A tibble: 122 x 4
    ##    iso2c country   NY.GDP.MKTP.KD  year
    ##    <chr> <chr>              <dbl> <int>
    ##  1 AU    Australia        1.45e12  2020
    ##  2 AU    Australia        1.45e12  2019
    ##  3 AU    Australia        1.42e12  2018
    ##  4 AU    Australia        1.38e12  2017
    ##  5 AU    Australia        1.35e12  2016
    ##  6 AU    Australia        1.31e12  2015
    ##  7 AU    Australia        1.28e12  2014
    ##  8 AU    Australia        1.25e12  2013
    ##  9 AU    Australia        1.22e12  2012
    ## 10 AU    Australia        1.17e12  2011
    ## # ... with 112 more rows
…
