PPML HDFE in R: a short workshop
…
q
quantity

Products in Harmonized System 6-digit nomenclature. Values in thousand USD and quantities in metric tons. Exporter and importer is codified using CEPII codes. the codes and it means can be found in the “key” dataset. To have country identities into the BACI dataset, we need to join the two.

To join the two datasets, we need a key variable. A key variable is the variable connecting the two variables. Both needs the same name. So first we need to

Code

trade <- trade |>
  group_by(i,j,k) |>
  mutate(id=row_number())
trade

# A tibble: 65,646,558 × 7
# Groups:   i, j, k [19,304,073]
       t     i     j k           v      q    id
   <dbl> <dbl> <dbl> <chr>   <dbl>  <dbl> <int>
 1  2017     4    12 130120  5.95   1.4       1
 2  2017     4    12 130190  5.12   2.32      1
 3  2017     4    12 401031  0.087  0.002     1
 4  2017     4    12 853890  0.303  0.019     1
 5  2017     4    36 071320  3.23   2.45      1
 6  2017     4    36 080212  8.27   2.19      1
 7  2017     4    36 080290  4.71   1.06      1
 8  2017     4    36 080420  1.21   1.55      1
 9  2017     4    36 080620 47.7   34.3       1
10  2017     4    36 081310 13.6   14.2       1
# ℹ 65,646,548 more rows
…
