Beginner Data Viz
…
Di latihan7.xlsx, kolom “year” bentuknya adalah “chr”. Dengan as.Date(), kita mengubah kolom “year” dari “chr” jadi “tss”.

sub-command “format” memberitau kita bahwa year itu merupakan tahun.

Intermezzo: chr vs ts

Tanpa as.Date
Dengan as.Date

read_excel("latihan7.xlsx")

# A tibble: 275 × 8
   country year       import      export PDBperkapita    LM    LX    LP
   <chr>   <chr>       <dbl>       <dbl>        <dbl> <dbl> <dbl> <dbl>
 1 China   1967  2169144528. 2388496222.         96.6  9.34  9.38  1.98
 2 China   1968  2067592818. 2339751401.         91.5  9.32  9.37  1.96
 3 China   1969  1917296287. 2429116906.        100.   9.28  9.39  2.00
 4 China   1970  2278820375. 2307254854.        113.   9.36  9.36  2.05
 5 China   1971  2128523844. 2782516858.        119.   9.33  9.44  2.07
 6 China   1972  2850652532. 3692485858.        132.   9.45  9.57  2.12
 7 China   1973  5207600281. 5876143561.        157.   9.72  9.77  2.20
 8 China   1974  7791148277. 7107893127.        160.   9.89  9.85  2.20
 9 China   1975  7925583396. 7688998817.        178.   9.90  9.89  2.25
10 China   1976  6660142165. 6943442876.        165.   9.82  9.84  2.22
# … with 265 more rows

dat<-read_excel("latihan7.xlsx")
dat$year<-as.Date(dat$year,"%Y") # mengubah year dari chr ke tss
dat

# A tibble: 275 × 8
   country year            import      export PDBperkapita    LM    LX    LP
   <chr>   <date>           <dbl>       <dbl>        <dbl> <dbl> <dbl> <dbl>
 1 China   1967-12-25 2169144528. 2388496222.         96.6  9.34  9.38  1.98
 2 China   1968-12-25 2067592818. 2339751401.         91.5  9.32  9.37  1.96
 3 China   1969-12-25 1917296287. 2429116906.        100.   9.28  9.39  2.00
 4 China   1970-12-25 2278820375. 2307254854.        113.   9.36  9.36  2.05
 5 China   1971-12-25 2128523844. 2782516858.        119.   9.33  9.44  2.07
 6 China   1972-12-25 2850652532. 3692485858.        132.   9.45  9.57  2.12
 7 China   1973-12-25 5207600281. 5876143561.        157.   9.72  9.77  2.20
 8 China   1974-12-25 7791148277. 7107893127.        160.   9.89  9.85  2.20
 9 China   1975-12-25 7925583396. 7688998817.        178.   9.90  9.89  2.25
10 China   1976-12-25 6660142165. 6943442876.        165.   9.82  9.84  2.22
# … with 265 more rows
…
